(4509)

(4510)

(4511)

(4512)

9507

9508

9309

9510

25. Nov. 1933 - 18 Mrz. 1943)
(1 KLs So 60/40)

Prozeß gegen der Maschinenschlosser
Theodor BLOCHL (get. 13. Okt. 1903) aus
Augsburg, wegen Dietstanls und Betrugs.

Urteil: 6 Jahre Zuchthaus, ab 3 Wochen
Untercucnurngzenaft, Aberkennung
der vurg erlichen Ehrenrechte
auf DD Jähre, Sicherungsverwahrurg
(88 20,22,24.4,263,264 StOB;

4 vo)
12. Jan. 1943 ıns KZ Mauthausen verlegt,

Anordnung, die Akten wegzulegen 8. Jun.
1943.

20. Okt 1939 - 8. Jun. 19743
(1 KLs So 61/.9;

Prozeß gogen äcr ö
PERTSEDER (gen. J. vv.
chen, wegen Di-t stahl

ar Johann LE-
l - 1891) aus u ün-
s u.d Betrugs.

Urteil: 8 Jatıie 7?

thus, Aberkennung
der burg-rli>.-p Ehrenrechte
auf 190 Jahr:, Sicherungsverwahrur
(85 7..2.),1...263,264 StGB;
8 2 7
29. Aug. 133 - 7... Ju. 19740
(1 KLs So 62/-‘
Prozeß Kon a-n B.w«iechter Josef
WIBLISHÄUSER (gr:. Li. Dez. 1398) aus
Munchen, Wegen At. :er ausländischer
Rundfunksen ir
Urteil: 9 Mina. 7 las
(38 1,1 Rift JO)
8. Feb. 194J - 5. Mrr. 1741

(1 KLS So 63/409)

Prozeß gegen un

ä Franz ANGER-
STORFER (geb. 3. Ps:
5

>: . 1722), und dessen

Bruder Josef A. ERSGT CFER (geb. 30.

Dez. 1923), L-.. ac Teisoach (Lkr.

Dingolfing) «cn Tirc hlags.

Urteil: Franz fi; ressrfer Todesstrafe,
Absrkenn rg ur burgerlichen
Ehrenruchic s.f Lebenszeit, To-
desstraf- zu 19 Jahren Zuchthaus
begnailigt; Jcef Angerstorfer
4 Janre O-faear-nnis
