(5804)

(5805)

(5806)

(5807)

(5808)

10253

10254

10255

10256

10257

hre 6 Monate Zuchthaus
242,244 StGB; 8 2 VVO)
21. Nov. 1340 1. Mai 1944
(5 KLs So 17/1

Prozeß gegen den Fxmdienten Franz HOIKISZ
geb. 21. Jul. 1833) aus München wegen
Diebstahis.

Urteil: 2 Jarsre FCucnthaus, 2 Jahre Ehr-
verinst
(8 242 StGB; 3 2 VVO)

23. Jan. 1941 - 25. Aug. 1944

(5 KLs So 10/41)

hael RAGER (geb.
d (Lkr. Kempten)
(Lkr. Schwab-

Prozeß gegen den Melker Mi
3. Apr. 1516) aus Probstri
wegen DiebsLahle in Graben
münchen).

m

Urteil: 6 M)nate Gefängnis

($ 242 StGB)
18. Dez. 1940 - 17/. Spu. 1941
(5 KLs So 21/41)

Prozeß gegan den Kaufmann Josef HARTMANN
(geb. 4. Aug. 1922) aus Mindelheim wegen
Scheckbetrugs.

Urteil: 1 Jahr 3 Monate Gefängnis, 100.-
RM G.ldstrafe oder 10 Tage Ge-
fängnis
(88% 246.266,267,268 StGB)

153. Feb. 1941 - 3. Mrz. 1942
(5 KLs So 22/41)

Prozeß g>gen den Angestellten Ludwig STÜD-
LEIN (get. 1. Mrz. 183976) aus Traunstein,
früher "Reipublikenische Schutztruppe",
dann USPD. KPD, ab 1922 NSDAP- und SA-
Mitglien, wegen eines Sittlichkeitsver-
gehens.

Urteil: 1 Jahr 6 Monate Zuchthaus, 2 Jahre
Ehrverlust
(3 185 StGB; 3 4 VVO)

5. Mrz. 1941 - 18. Nov. 1944
5 KLs So 23/41)

Prozeß gegen den Kellner Fritz MACHACEK

(geb. 5. Dez. 189397), Tscheche, und den
Hilfs schlassr ten KOSTELNIK (geb. 6.
Aug. 1920), Tschsche, beide aus München,

wegen fi ahls und anderem.
