(5813)

(5814)

(5815)

(5816)

(5817)

10262

10263

10264

10265

10266

Prozeß gegen die Kinovorführersehefrau
Anna HOFBÄAUER (geb. 14. Aug. 1905) aus
Deggend-r wegen Diebstahls.

Urteil: 2 Janre Zuchthaus, 2 Jahre Hhr-
verlust
188 242,244 StGB; $ 2 VVO)

26. Nav. 1940 - Z7. Jun. 1943

(5 KlLs Sc 33/1)

Prozeß gegen den Hilfsarbeiter Richard
SCHÜBEL (geb. 17. Mai 1909) aus Traunstein
wegen Baetrugs.

Urteil: £ Jahre 6 Monate Zuchthaus, 3 Jahre
Es: rverlusct
($8 43,263 StGB; $ 4 VVO)

3. Feb. iyl! - 25. Okt. 1942
(5 KLs So 33/41)

Prozeß gegen den landw. Baumeister Johann
Nepomuk HÄLMEL (geb. 22. Jan 1920) aus
Laufzorn (L«r. Murchen) wegen Diebstahls
und Unters-hlagung.

Urteil: 2 Jahre Zuchthaus, 2 Jahre Ehr-
verust
(88 242,244,246,274 StGB; 8 4 WVO)
2. Mrz. 7-' - 253. Okt. 1942
(5 KLs Ro z3/4ii)

Prozeß gegen den Hilfsarbeiter Bernhard
SCHMID (geb. 24. Mrz. 1904) wegen Dieb-
stahl urd B-trugs in Augsburg.

Urteil: 6 Janre Zuchthaus, 4mal 10.-RM
Gslüdstrafen oder 4mal 2 Tage Zucht-
haus, 6 Jahre Ehrverlust, Siche-
umgerverwahrung
(88 242,243, 24, 246,263,264 StGB;

SS 2 WO)

13. Mrz. 1343 nach Mauthausen überstellt,

Akten wsggelegt am 21. Aug. 1943.

20. Aug. 15L0 - 21. Aug. 1943

(5 KLs So 4/41)

C

Prozeß gagan den Schlosser Josef MAYER
(geb. 14. Mr. 1913) aus München wegen Be-
trugs.

Urteils ? Jabre Zuchthaus, 2 Jahre Ehrverlust
(88 63,267,268 StGB; 8 4 WVO)
22. Jul. 1L0 - 25. Okt. 1942

(5 KLs 9.0 41/41)
