(6060)

(6061)

(6062)

(6063)

(6064)

10308

10509

10510

10511

10512

vv are Z.chthaus, 2 Jahre Lhr-

rl.
$ 4 W rhraft VO)
21. Pl. 1947 - 23. Nov. 1943

(1 KM. CO 187,1,

S 7 die Bergmannsehefrau Katha-
ibRR (geb. 19. Mai 1903) aus Pei-
Lkr. 3cfK ngau) wegen verbotenen Un-
(gang m.t en frarz0sischen Kriegsgefan-
genen Ai kKITTLING und Leon COPAT.

oOna
‚- W hnrkrafce VO)
10. Okt. 7. - 12. Por. 1943
(1 KMs3 © 188/11)

Prozeß zz die Arbeitersehefrau Viktoria
r

TAMMPP .. Irz. 1903) aus Peiting
(Lkr. Sorrpw) wegen verbotenen Umgangs
mit ein 1 schon Kriegsgefangenen.
Urteil: | Jaur 3 Monate Gefängnis

‚$ 4 Wesrkraft VO)
53. Jan. 1943
)

enstmagd Centa GÄRINGER

. 2) aus Gunding (Lkr.
vernotenen Umgangs mit ei-
> Kriezsgefangenen.

h
x
Ö
N
D
f
- u
fl
A
n
H
+
Fa
7
-

>

(geb.
Dachau) we
nem Ira

u- (9 r
>

(/
(
km

28. Soli. 1941 - 22. Feb. 1945
(1 KMo 837 11/41)

Fros 1 ii Persmannsfrau Genoveva

Fr = ;
KRÖNER (fü 16. Apr. 1906) aus Peiting
(Lkr. Sccngau) wogen verbotenen Umgangs

Or

mit «inrmf sischen Kriegsgefangenen.
Urteii: Jahr 2 Monate Zuchthaus

(8 4 Wehrkraft VO)
1 - 15. Jan. 1943

32/1)

Prozeß gegen an Kassierer Josef ZEITL (geb.
5. Apr. 1871) a Mänchen, früher Baur
und-Mitgliecd, wegen einer abwertenden Auße
rung über di. Soldaten und den Krieg.

ri mn
Urteil: 1D Tunate Gefängnis

m \
